[gd_scene load_steps=6 format=2]

[ext_resource path="res://scripts/Intro.gd" type="Script" id=1]
[ext_resource path="res://ui/font/BebasKai.otf" type="DynamicFontData" id=2]
[ext_resource path="res://ui/images/intro.png" type="Texture" id=3]

[sub_resource type="DynamicFont" id=1]
size = 100
use_filter = true
font_data = ExtResource( 2 )

[sub_resource type="Animation" id=2]
resource_name = "intro"
length = 5.0
tracks/0/type = "value"
tracks/0/path = NodePath("ColorRect/Label:modulate")
tracks/0/interp = 2
tracks/0/loop_wrap = true
tracks/0/imported = false
tracks/0/enabled = true
tracks/0/keys = {
"times": PoolRealArray( 0, 2, 2.5, 4 ),
"transitions": PoolRealArray( 1, 1, 1, 1 ),
"update": 0,
"values": [ Color( 1, 1, 1, 0 ), Color( 1, 1, 1, 0 ), Color( 1, 1, 1, 1 ), Color( 1, 1, 1, 1 ) ]
}
tracks/1/type = "value"
tracks/1/path = NodePath("ColorRect/TextureRect:modulate")
tracks/1/interp = 2
tracks/1/loop_wrap = true
tracks/1/imported = false
tracks/1/enabled = true
tracks/1/keys = {
"times": PoolRealArray( 0, 1, 2.5, 4 ),
"transitions": PoolRealArray( 1, 1, 1, 1 ),
"update": 0,
"values": [ Color( 1, 1, 1, 1 ), Color( 1, 1, 1, 1 ), Color( 1, 1, 1, 0 ), Color( 1, 1, 1, 0 ) ]
}
tracks/2/type = "value"
tracks/2/path = NodePath("ColorRect:color")
tracks/2/interp = 2
tracks/2/loop_wrap = true
tracks/2/imported = false
tracks/2/enabled = true
tracks/2/keys = {
"times": PoolRealArray( 0, 1.5, 3, 4 ),
"transitions": PoolRealArray( 1, 1, 1, 1 ),
"update": 0,
"values": [ Color( 0.0784314, 0.129412, 0.25098, 1 ), Color( 0.0784314, 0.129412, 0.25098, 1 ), Color( 0.184314, 0.458824, 0.85098, 1 ), Color( 0.184314, 0.458824, 0.85098, 1 ) ]
}
tracks/3/type = "method"
tracks/3/path = NodePath(".")
tracks/3/interp = 1
tracks/3/loop_wrap = true
tracks/3/imported = false
tracks/3/enabled = true
tracks/3/keys = {
"times": PoolRealArray( 5 ),
"transitions": PoolRealArray( 1 ),
"values": [ {
"args": [  ],
"method": "intro_end"
} ]
}

[node name="Intro" type="Control"]
anchor_right = 1.0
anchor_bottom = 1.0
script = ExtResource( 1 )

[node name="ColorRect" type="ColorRect" parent="."]
anchor_right = 1.0
anchor_bottom = 1.0
color = Color( 0.184314, 0.458824, 0.85098, 1 )

[node name="Label" type="Label" parent="ColorRect"]
anchor_right = 1.0
anchor_bottom = 1.0
custom_fonts/font = SubResource( 1 )
text = "Celantro"
align = 1
valign = 1

[node name="TextureRect" type="TextureRect" parent="ColorRect"]
modulate = Color( 1, 1, 1, 0 )
anchor_right = 1.0
anchor_bottom = 1.0
texture = ExtResource( 3 )
expand = true
stretch_mode = 6

[node name="AnimationPlayer" type="AnimationPlayer" parent="."]
autoplay = "intro"
anims/intro = SubResource( 2 )

