[gd_resource type="ShaderMaterial" load_steps=5 format=2]

[sub_resource type="VisualShaderNodeColorConstant" id=1]

[sub_resource type="VisualShaderNodeScalarConstant" id=2]
constant = 0.5

[sub_resource type="VisualShaderNodeScalarConstant" id=3]
constant = 0.5

[sub_resource type="VisualShader" id=4]
code = "shader_type spatial;



void vertex() {
// Output:0

}

void fragment() {
// Color:2
	vec3 n_out2p0;
	float n_out2p1;
	n_out2p0 = vec3(1.000000,1.000000,1.000000);
	n_out2p1 = 1.000000;

// Scalar:3
	float n_out3p0;
	n_out3p0 = 0.500000;

// Scalar:4
	float n_out4p0;
	n_out4p0 = 0.500000;

// Output:0
	ALBEDO = n_out2p0;
	ALPHA = n_out3p0;
	EMISSION = n_out2p0;
	RIM = n_out4p0;
	RIM_TINT = n_out4p0;

}

void light() {
// Output:0

}
"
graph_offset = Vector2( -320, 75 )
nodes/fragment/2/node = SubResource( 1 )
nodes/fragment/2/position = Vector2( 240, 80 )
nodes/fragment/3/node = SubResource( 2 )
nodes/fragment/3/position = Vector2( -20, 200 )
nodes/fragment/4/node = SubResource( 3 )
nodes/fragment/4/position = Vector2( 60, 360 )
nodes/fragment/connections = PoolIntArray( 2, 0, 0, 0, 3, 0, 0, 1, 4, 0, 0, 11, 4, 0, 0, 10, 2, 0, 0, 5 )

[resource]
shader = SubResource( 4 )

